{
	"process_id" : 15880,
	"version" : "2019.3.0f5",
	"app_path" : "C:/Program Files/Unity/Hub/Editor/2019.3.0f5/Editor/Unity.exe",
	"app_contents_path" : "C:/Program Files/Unity/Hub/Editor/2019.3.0f5/Editor/Data"
}